8.385923476617855865e-01,8.544540646533271833e-01,8.448932117273826314e-01
8.469599604547701777e-01,8.567334245726205832e-01,8.512500000000000622e-01
8.375049499542556175e-01,8.479958645933749484e-01,8.430149220817406697e-01
8.469446085249900946e-01,8.627490671499895569e-01,8.531747306359453997e-01
8.420857072083230976e-01,8.593103448275862810e-01,8.483210027230840833e-01
8.386135468973615614e-01,8.586076083892819621e-01,8.491627192961865855e-01
8.368583471323197687e-01,8.452327900033334007e-01,8.417107839711142070e-01
8.330771857923497947e-01,8.556909532004508545e-01,8.523011286378763263e-01
8.489606717281623638e-01,8.554072393983900291e-01,8.443742341944782126e-01
8.378492109877264671e-01,8.512531988559386420e-01,8.476929968642675783e-01
8.477311361414627822e-01,8.585431741662402638e-01,8.482286254133207803e-01
8.406695099380381286e-01,8.582603791167022766e-01,8.521566335476330467e-01
8.502070667019120398e-01,8.484981299672743615e-01,8.509467848910384769e-01
8.508142034239017937e-01,8.596501776631257918e-01,8.593103448275862810e-01
8.434672748102227668e-01,8.509467848910384769e-01,8.581590372350205165e-01
8.437345325470563262e-01,8.569669773875676633e-01,8.530467642890884328e-01
8.454136928363733539e-01,8.606944444444444287e-01,8.585431741662402638e-01
8.462205074936934857e-01,8.543653820035729263e-01,8.502070667019120398e-01
8.539512043978949585e-01,8.604223973578131179e-01,8.518580986113453157e-01
8.444531923269249507e-01,8.685837971552257120e-01,8.600791876291898896e-01
8.426183518410286233e-01,8.596501776631257918e-01,8.595919814842466478e-01
