8.803921568627450789e-01,8.882352941176470118e-01,8.911764705882353477e-01
8.852941176470587870e-01,8.833333333333333037e-01,8.931372549019608309e-01
8.833333333333333037e-01,8.843137254901960453e-01,8.813725490196078205e-01
8.882352941176470118e-01,8.941176470588235725e-01,8.941176470588235725e-01
8.882352941176470118e-01,8.911764705882353477e-01,8.911764705882353477e-01
8.990196078431372806e-01,8.901960784313724950e-01,8.941176470588235725e-01
8.882352941176470118e-01,8.862745098039215286e-01,8.892156862745097534e-01
8.970588235294117974e-01,8.931372549019608309e-01,8.960784313725490557e-01
8.980392156862745390e-01,8.931372549019608309e-01,8.980392156862745390e-01
8.911764705882353477e-01,8.980392156862745390e-01,8.980392156862745390e-01
8.960784313725490557e-01,8.941176470588235725e-01,8.921568627450980893e-01
8.950980392156863141e-01,8.950980392156863141e-01,8.970588235294117974e-01
8.941176470588235725e-01,8.911764705882353477e-01,8.921568627450980893e-01
8.911764705882353477e-01,8.931372549019608309e-01,8.990196078431372806e-01
8.980392156862745390e-01,8.980392156862745390e-01,9.000000000000000222e-01
9.009803921568627638e-01,8.931372549019608309e-01,9.019607843137255054e-01
8.950980392156863141e-01,8.901960784313724950e-01,8.911764705882353477e-01
9.000000000000000222e-01,8.911764705882353477e-01,8.931372549019608309e-01
8.990196078431372806e-01,8.882352941176470118e-01,8.990196078431372806e-01
8.960784313725490557e-01,8.941176470588235725e-01,8.970588235294117974e-01
8.931372549019608309e-01,8.921568627450980893e-01,8.970588235294117974e-01
