8.683921077568702573e-01,8.733195337182699802e-01,8.765589583067578960e-01
8.719746309374258875e-01,8.650996082353921146e-01,8.791509916944839631e-01
8.657655774634802626e-01,8.682666713365088107e-01,8.652312590973267881e-01
8.708751793400286711e-01,8.803498268678504601e-01,8.792417751546748317e-01
8.729296982572092301e-01,8.765589583067578960e-01,8.761777170198223885e-01
8.852795015456582650e-01,8.743726329402345954e-01,8.796176088752507560e-01
8.697790678922754370e-01,8.688271604938271331e-01,8.714704842661182838e-01
8.830519190513992367e-01,8.782190939053684531e-01,8.816632810311011426e-01
8.831594529818129757e-01,8.789678630174864171e-01,8.835309617918314373e-01
8.733147516367147922e-01,8.847813147616336860e-01,8.842548139871859725e-01
8.818469124145980054e-01,8.796176088752507560e-01,8.773883053359035067e-01
8.806397812713602224e-01,8.818983269470705988e-01,8.839340190365548855e-01
8.815707995046099255e-01,8.771184371184370665e-01,8.793776661621026669e-01
8.730966458374196382e-01,8.782190939053684531e-01,8.843755055682669397e-01
8.856285255912643706e-01,8.831594529818129757e-01,8.873338271412420930e-01
8.868010359540214882e-01,8.791509916944839631e-01,8.883615858783973085e-01
8.806397812713602224e-01,8.757309941520468044e-01,8.771184371184370665e-01
8.861288175959651792e-01,8.767470898618440200e-01,8.789678630174864171e-01
8.852795015456582650e-01,8.715104046958150885e-01,8.854556099603247965e-01
8.818469124145980054e-01,8.788593246209406296e-01,8.828708133971290284e-01
8.789678630174864171e-01,8.773883053359035067e-01,8.837606837606837296e-01
