8.811211396449084576e-01,8.738936121925245937e-01,8.768483441280703339e-01
8.786203103996088615e-01,8.587271521097745719e-01,8.806104991183812958e-01
8.610315811525637297e-01,8.671374452261657595e-01,8.649508563048828869e-01
8.646758960213682954e-01,8.821075051064052319e-01,8.774986470208272493e-01
8.723573261639985255e-01,8.768483441280703339e-01,8.753120580995443767e-01
8.849836769609469300e-01,8.715106230687312827e-01,8.790349330493532065e-01
8.608351809500531804e-01,8.632181700738463803e-01,8.638684729666032958e-01
8.827578079991620363e-01,8.767697840470662918e-01,8.804926589968751216e-01
8.796459559016078789e-01,8.798423561041183172e-01,8.811822419301338360e-01
8.645580558998621212e-01,8.865592430299750193e-01,8.842548139871859725e-01
8.812608020111381002e-01,8.790349330493532065e-01,8.768090640875683128e-01
8.797637960231141641e-01,8.851407971229552363e-01,8.865985230704771514e-01
8.874845062062464152e-01,8.791527731708594917e-01,8.852586372444615215e-01
8.637899128855990316e-01,8.767697840470662918e-01,8.811429618896318150e-01
8.903999581012901343e-01,8.796459559016078789e-01,8.903213980202859812e-01
8.841369738656796873e-01,8.806104991183812958e-01,8.871702658822296916e-01
8.797637960231141641e-01,8.768876241685724660e-01,8.791527731708594917e-01
8.849443969204449090e-01,8.776164871423333125e-01,8.798423561041183172e-01
8.849836769609469300e-01,8.669803250641574532e-01,8.857518199752099086e-01
8.812608020111381002e-01,8.759623609923010701e-01,8.819896649848990577e-01
8.798423561041183172e-01,8.768090640875683128e-01,8.858303800562141728e-01
