7.680000000000000160e-01,8.629999999999999893e-01,8.649999999999999911e-01
7.920000000000000373e-01,8.639999999999999902e-01,8.319999999999999618e-01
7.910000000000000364e-01,8.619999999999999885e-01,8.659999999999999920e-01
7.950000000000000400e-01,8.609999999999999876e-01,8.599999999999999867e-01
7.970000000000000417e-01,8.589999999999999858e-01,8.409999999999999698e-01
7.940000000000000391e-01,8.599999999999999867e-01,8.619999999999999885e-01
8.040000000000000480e-01,8.739999999999999991e-01,8.449999999999999734e-01
8.090000000000000524e-01,8.719999999999999973e-01,8.649999999999999911e-01
7.990000000000000435e-01,8.729999999999999982e-01,8.529999999999999805e-01
8.229999999999999538e-01,8.679999999999999938e-01,8.649999999999999911e-01
8.219999999999999529e-01,8.639999999999999902e-01,8.649999999999999911e-01
8.090000000000000524e-01,8.669999999999999929e-01,8.579999999999999849e-01
8.090000000000000524e-01,8.649999999999999911e-01,8.539999999999999813e-01
8.100000000000000533e-01,8.750000000000000000e-01,8.479999999999999760e-01
8.060000000000000497e-01,8.800000000000000044e-01,8.639999999999999902e-01
8.120000000000000551e-01,8.790000000000000036e-01,8.729999999999999982e-01
8.219999999999999529e-01,8.679999999999999938e-01,8.489999999999999769e-01
8.060000000000000497e-01,8.679999999999999938e-01,8.459999999999999742e-01
8.149999999999999467e-01,8.659999999999999920e-01,8.419999999999999707e-01
8.189999999999999503e-01,8.619999999999999885e-01,8.579999999999999849e-01
8.149999999999999467e-01,8.689999999999999947e-01,8.389999999999999680e-01
