7.655608955573789398e-01,8.629505251395753751e-01,8.647943522097110147e-01
7.908547204491795934e-01,8.636591478696741264e-01,8.313930148534725006e-01
7.909077903355379302e-01,8.619861986198620318e-01,8.659351125944956262e-01
7.949751919982317450e-01,8.606922692227130245e-01,8.599439775910364681e-01
7.968519050387732339e-01,8.588270631523616805e-01,8.408470540189121323e-01
7.938606497992641842e-01,8.597756410256409687e-01,8.617561378271270112e-01
8.039968639498231706e-01,8.739495798319327768e-01,8.449030644152595304e-01
8.085403052729602802e-01,8.714735556840820241e-01,8.647011247846492221e-01
7.988308167168588492e-01,8.727861535240739599e-01,8.529080675422138214e-01
8.223817107350688271e-01,8.678964308017486085e-01,8.647011247846492221e-01
8.217147435897436125e-01,8.637820512820513219e-01,8.646750848787940757e-01
8.087917742421497636e-01,8.667973988436411537e-01,8.578885846503658819e-01
8.089845277467474505e-01,8.649966249156229026e-01,8.539713783901643485e-01
8.099079954698074069e-01,8.749718686704508475e-01,8.479123975409836866e-01
8.059371236280554740e-01,8.799611073987971821e-01,8.639341441257568643e-01
8.096973377872254130e-01,8.786844582759758548e-01,8.723924605044617309e-01
8.219287715086034396e-01,8.678810929836853205e-01,8.488729021106751205e-01
8.059992239968960526e-01,8.678646934460888529e-01,8.459698100827761635e-01
8.146884913539660378e-01,8.658626433467870864e-01,8.418576719047143886e-01
8.188026761142884746e-01,8.611552686544938773e-01,8.576149909354895406e-01
8.147983153654329014e-01,8.688004454775712926e-01,8.387792888464307151e-01
