8.262788175532014279e-01,8.310571379316951113e-01,8.363483213669729022e-01
8.278900804377100631e-01,8.397281994200505029e-01,8.323316267489949682e-01
8.205323327717637394e-01,8.453601548997440318e-01,8.281504927765597213e-01
8.260019743988483709e-01,8.355376402658241108e-01,8.327373818414736117e-01
8.325853187694226554e-01,8.313714742846490813e-01,8.379978772135634468e-01
8.298515371255310580e-01,8.412252969626281551e-01,8.315570745044429390e-01
8.278900804377100631e-01,8.357096522234137570e-01,8.335288531366962239e-01
8.350508750508751632e-01,8.333583395848961350e-01,8.377601045865562535e-01
8.330860654716168989e-01,8.503246227408747249e-01,8.321053110340077552e-01
8.325423788175960738e-01,8.433823529411764719e-01,8.315570745044429390e-01
8.336545589325425887e-01,8.365235923225866621e-01,8.447282207852351288e-01
8.250190244524696626e-01,8.370079153824601104e-01,8.307619448421510455e-01
8.252964426877469339e-01,8.433823529411764719e-01,8.295899391891817798e-01
8.244568886770722305e-01,8.449432672590566629e-01,8.307619448421510455e-01
8.262788175532014279e-01,8.335682957393483195e-01,8.310293038323940396e-01
8.293877160893423639e-01,8.340451041776999475e-01,8.377601045865562535e-01
8.296657419128936617e-01,8.352856968279185335e-01,8.328367928367929052e-01
8.360349479300173137e-01,8.402323892519971693e-01,8.362726866719589758e-01
8.325983959505741661e-01,8.402255639097744311e-01,8.310927116243598256e-01
8.298961703897184128e-01,8.476448404326650810e-01,8.377481687964428714e-01
8.216557168522233834e-01,8.389890335395665533e-01,8.325423788175960738e-01
