8.350402141111248344e-01,8.263146395750549100e-01,8.503748310188030679e-01
8.352518673275708405e-01,8.608619065175535656e-01,8.470703098329988023e-01
7.959185066841452105e-01,8.246965165977087064e-01,8.164625237256428747e-01
8.189272595687736578e-01,8.183605751505469428e-01,8.220201275381318062e-01
8.268062212390588916e-01,8.427757977960754765e-01,8.372181939835866560e-01
8.294075075444130585e-01,8.374981224311444095e-01,8.254680267092704415e-01
8.347534581404558729e-01,8.258913331421626758e-01,8.284926194475168426e-01
8.303223956413092743e-01,8.367266123195826744e-01,8.310256305217593731e-01
8.388363169609329706e-01,8.284926194475168426e-01,8.432673794600795691e-01
8.396829298267174391e-01,8.287042726639630708e-01,8.450971556538718898e-01
8.351767645733481071e-01,8.390479701773790877e-01,8.370065407671405389e-01
