7.995381358650330839e-01,8.809798856006664236e-01,8.559302702508013727e-01
7.949948748718718150e-01,8.679867986798679436e-01,8.518998843218015260e-01
8.188258916819062261e-01,8.789795475435348004e-01,8.799764753891763380e-01
8.249914245798044554e-01,8.829998829998830789e-01,8.629768430864814821e-01
8.168855534709194011e-01,8.789650208910374518e-01,8.579312387195402456e-01
8.149331908819084092e-01,8.829380742412736849e-01,8.689422035117486676e-01
8.259993039972159945e-01,8.809970249256231511e-01,8.719585145587169794e-01
8.339893753200204873e-01,8.879995519982080143e-01,8.739677357403494717e-01
8.219992879971520505e-01,8.749788714292714431e-01,8.669839050525114388e-01
8.229984069856628448e-01,8.799692721336662693e-01,8.799764753891763380e-01
8.189694058295853285e-01,8.839883988398840042e-01,8.799188251257850091e-01
8.304872238521527894e-01,8.779980479687674588e-01,8.719979519672313995e-01
8.258634769659413122e-01,8.819074154136843369e-01,8.779824294698436171e-01
8.289793064960859770e-01,8.759875987598759739e-01,8.759920634920633775e-01
8.219886072708653124e-01,8.829736690755420891e-01,8.719672236092439466e-01
8.299755164743722879e-01,8.849989649906849776e-01,8.839995359981440703e-01
8.299938797796719836e-01,8.848423491760220028e-01,8.618004398351218898e-01
8.328781681846065821e-01,8.849989649906849776e-01,8.669296057614477302e-01
8.249858238517319142e-01,8.839995359981440703e-01,8.789969749243731201e-01
8.186327312808436840e-01,8.829989469905228372e-01,8.889972249306232754e-01
8.359895033282129795e-01,8.839883988398840042e-01,8.749788714292714431e-01
