8.039451274520512669e-01,8.810175404903655139e-01,8.573119215632785117e-01
7.950000000000000400e-01,8.684816334701230822e-01,8.536695055794474296e-01
8.210241893978383887e-01,8.790170283592599887e-01,8.800331307343579601e-01
8.249851997631962863e-01,8.831151685842761889e-01,8.630129313104154543e-01
8.173076923076922906e-01,8.799555940300421986e-01,8.582441302145280559e-01
8.151070439224352704e-01,8.833167785449943521e-01,8.692180793132167071e-01
8.261339222487606992e-01,8.812525010004002013e-01,8.721215541706193175e-01
8.339820233528407734e-01,8.880439695829049906e-01,8.740710503883879490e-01
8.221331380950667178e-01,8.756668642560758720e-01,8.675363572298033787e-01
8.231627296587926690e-01,8.808818756286088680e-01,8.807397882542391532e-01
8.195941940755218091e-01,8.839883988398840042e-01,8.804611334393870337e-01
8.338383838383838231e-01,8.782125408632397434e-01,8.720114880459521878e-01
8.277577125960684512e-01,8.825795383030492491e-01,8.780040888014051248e-01
8.289873741818821751e-01,8.764888399559603860e-01,8.763844358786538891e-01
8.219815913372880978e-01,8.830532212885153776e-01,8.720700819196490761e-01
8.299946789570755712e-01,8.850261604185667430e-01,8.841452924773255395e-01
8.302698506076940932e-01,8.881588488373967083e-01,8.651305052165818577e-01
8.346908939014202611e-01,8.850261604185667430e-01,8.684354134565999139e-01
8.249807987711212931e-01,8.841452924773255395e-01,8.790000000000000036e-01
8.227272727272727515e-01,8.831780935919595343e-01,8.892557022809124412e-01
8.359820953554328860e-01,8.839883988398840042e-01,8.750160040970488273e-01
