8.666666666666666963e-01,8.892156862745097534e-01,8.843137254901960453e-01
8.774509803921568540e-01,8.794117647058823373e-01,8.823529411764705621e-01
8.705882352941176627e-01,8.901960784313724950e-01,8.960784313725490557e-01
8.656862745098039547e-01,8.823529411764705621e-01,8.872549019607842702e-01
8.794117647058823373e-01,8.833333333333333037e-01,8.872549019607842702e-01
8.794117647058823373e-01,8.901960784313724950e-01,8.921568627450980893e-01
8.843137254901960453e-01,8.823529411764705621e-01,8.911764705882353477e-01
8.852941176470587870e-01,8.862745098039215286e-01,8.901960784313724950e-01
8.862745098039215286e-01,8.911764705882353477e-01,8.941176470588235725e-01
8.823529411764705621e-01,8.813725490196078205e-01,8.901960784313724950e-01
8.882352941176470118e-01,8.892156862745097534e-01,8.911764705882353477e-01
8.852941176470587870e-01,8.862745098039215286e-01,8.901960784313724950e-01
8.813725490196078205e-01,8.921568627450980893e-01,8.921568627450980893e-01
8.794117647058823373e-01,8.852941176470587870e-01,8.892156862745097534e-01
8.892156862745097534e-01,8.862745098039215286e-01,8.941176470588235725e-01
8.872549019607842702e-01,8.892156862745097534e-01,8.911764705882353477e-01
8.843137254901960453e-01,8.862745098039215286e-01,8.862745098039215286e-01
8.803921568627450789e-01,8.892156862745097534e-01,8.901960784313724950e-01
8.813725490196078205e-01,8.892156862745097534e-01,8.911764705882353477e-01
8.852941176470587870e-01,8.892156862745097534e-01,8.931372549019608309e-01
8.901960784313724950e-01,8.901960784313724950e-01,8.950980392156863141e-01
