8.427203751490935923e-01,8.677420798435762084e-01,8.625343207349778218e-01
8.536969909774074772e-01,8.583894594622050178e-01,8.609722853248523711e-01
8.467903813854409378e-01,8.677777777777777590e-01,8.753435776347102681e-01
8.436407294975669657e-01,8.580566752791320972e-01,8.648889912748005671e-01
8.523011286378764373e-01,8.591014671416681292e-01,8.630247361211829116e-01
8.513773009805117864e-01,8.675195635938566241e-01,8.685837971552257120e-01
8.598711876720176450e-01,8.560514827638114888e-01,8.675230126404248621e-01
8.617404209421439809e-01,8.648642475021814935e-01,8.682875537272408684e-01
8.619717784082424616e-01,8.695885046217639580e-01,8.717465107506601196e-01
8.577776125230065496e-01,8.564508156203658462e-01,8.669963815192031076e-01
8.626830420406235156e-01,8.662055948488109891e-01,8.685736374178585351e-01
8.620089982066025946e-01,8.638441249982738990e-01,8.677777777777777590e-01
8.570135977264907723e-01,8.706395616963973350e-01,8.706395616963973350e-01
8.554899645808736741e-01,8.600791876291897786e-01,8.662055948488109891e-01
8.654069146234231180e-01,8.596880692167577775e-01,8.709731826614943717e-01
8.646295315350873700e-01,8.634604472422587884e-01,8.688306557656237938e-01
8.614966099120371368e-01,8.608497666716845576e-01,8.616949152542372481e-01
8.536523408098750654e-01,8.656754510990348761e-01,8.667313722562340894e-01
8.558782006144618482e-01,8.664672441577970785e-01,8.680528767432997839e-01
8.614695097107156752e-01,8.669838005518684110e-01,8.701712716279037529e-01
8.682875537272408684e-01,8.677777777777777590e-01,8.738031009239870528e-01
