8.438544277360067181e-01,8.497743286683767661e-01,8.501377397882965425e-01
8.573886516168395255e-01,8.483940276939312408e-01,8.582573632538569308e-01
8.583372697213037528e-01,8.649382380887742361e-01,8.664996771100370587e-01
8.559649742512409620e-01,8.580285599176328271e-01,8.627526025719534086e-01
8.707912457912457826e-01,8.588793329170778534e-01,8.676456339148660435e-01
8.659113186876550294e-01,8.657082748948106143e-01,8.666505791505791922e-01
8.733619763694951965e-01,8.681481481481481133e-01,8.625944457018477340e-01
8.612905032103926883e-01,8.594363550062089629e-01,8.633990732872949270e-01
8.638148907103825325e-01,8.527706480335550676e-01,8.666505791505791922e-01
8.577167695318379526e-01,8.651925137783220698e-01,8.616308175300156913e-01
8.548857200833810399e-01,8.616308175300156913e-01,8.672222222222222276e-01
8.660580021482277013e-01,8.586105881855865540e-01,8.574474933612296068e-01
8.574474933612296068e-01,8.633990732872949270e-01,8.621833829302708585e-01
8.585434173669468372e-01,8.605154702882051865e-01,8.630760936250906346e-01
8.631554085970714052e-01,8.598615916955016925e-01,8.618935177376736423e-01
8.607463391591875235e-01,8.681919121084619162e-01,8.684926602219835701e-01
8.611886860007160749e-01,8.656296296296296378e-01,8.748279004828483085e-01
8.683618751081128018e-01,8.596349154932261261e-01,8.636233440744718326e-01
8.689947359151484196e-01,8.617277992277991849e-01,8.616036071930071039e-01
8.587540279269603172e-01,8.625150534397110214e-01,8.638148907103825325e-01
8.657945525517680707e-01,8.620643661515596801e-01,8.608607954957701036e-01
