7.798073063026896845e-01,8.647365324817211096e-01,8.607370119858556157e-01
7.998869198518936408e-01,8.681252509032517661e-01,8.670158242039849306e-01
8.041992637368360342e-01,8.698360025008415874e-01,8.714803596365222615e-01
8.134869106590358889e-01,8.776227694203995178e-01,8.540893272623152344e-01
7.989823671914861869e-01,8.774823042665824691e-01,8.810415241660967123e-01
8.120407190712464196e-01,8.795986823847388170e-01,8.677282989864053553e-01
8.119249907998528082e-01,8.849624060150376170e-01,8.733974358974359031e-01
8.217053022540983243e-01,8.848384838483849268e-01,8.737756865757633218e-01
8.111312007232260868e-01,8.798554000545055764e-01,8.678129650669696993e-01
8.229707220193478445e-01,8.847462171691098387e-01,8.684143140644005054e-01
8.166940852015962538e-01,8.818644393241167334e-01,8.798643113159242413e-01
