7.792467948717949344e-01,8.651442307692307487e-01,8.608974358974359475e-01
7.943108974358974450e-01,8.673878205128204844e-01,8.672275641025641857e-01
8.042467948717948456e-01,8.697115384615384803e-01,8.719551282051282159e-01
8.133814102564103088e-01,8.780448717948717841e-01,8.542467948717948900e-01
7.981570512820512775e-01,8.779647435897435237e-01,8.816506410256410575e-01
8.121794871794871806e-01,8.781250000000000444e-01,8.680288461538461231e-01
8.124198717948718507e-01,8.846153846153845812e-01,8.733974358974359031e-01
8.220352564102564319e-01,8.854166666666667407e-01,8.742788461538462119e-01
8.116185897435896912e-01,8.797275641025641413e-01,8.683493589743589425e-01
8.231570512820511887e-01,8.851762820512820706e-01,8.689102564102564319e-01
8.169871794871794712e-01,8.824519230769231060e-01,8.804487179487179294e-01
