7.708162345708814422e-01,8.761203803769218590e-01,8.744843628636624899e-01
8.249385156965809429e-01,8.697504710923340543e-01,8.736545905031801729e-01
8.312801932367148705e-01,8.857901351939283519e-01,8.786601105835638581e-01
8.349999999999999645e-01,8.814552857303786793e-01,8.674045321444165957e-01
8.336941168938736269e-01,8.826560023058077631e-01,8.768229292005582654e-01
8.392112843785706211e-01,8.797090257243347367e-01,8.758539902355267914e-01
8.358740914672928568e-01,8.885700602465399500e-01,8.915133812903328625e-01
8.367681047765793689e-01,8.832312528355693582e-01,8.737615851709811254e-01
8.356564577255392035e-01,8.853416109109624177e-01,8.716626809112357765e-01
8.457142857142856407e-01,8.878195488721805084e-01,8.766512946149780383e-01
8.360365792382675743e-01,8.892358264615582986e-01,8.729626655961462145e-01
