8.399527186761228670e-01,8.417764268828098473e-01,8.452887537993920564e-01
8.537656197230665267e-01,8.555217831813576312e-01,8.548463356973995397e-01
8.417764268828098473e-01,8.614994934143870298e-01,8.518405943937858993e-01
8.284025667004391025e-01,8.492063492063491870e-01,8.486997635933806183e-01
8.527186761229315071e-01,8.500844309354947947e-01,8.509625126646402915e-01
8.442755825734549191e-01,8.458628841607565008e-01,8.513340087808172196e-01
8.306990881458966580e-01,8.543397500844309711e-01,8.478216818642350106e-01
8.388044579533942002e-01,8.511651469098278078e-01,8.479905437352246445e-01
8.458291117865586184e-01,8.462343802769334289e-01,8.492063492063491870e-01
8.374197906112799128e-01,8.465721040189124746e-01,8.405943937858831871e-01
8.411009793988517558e-01,8.436001350894968276e-01,8.486997635933806183e-01
