8.745098039215686292e-01,8.813725490196078205e-01,8.862745098039215286e-01
8.676470588235294379e-01,8.794117647058823373e-01,8.823529411764705621e-01
8.666666666666666963e-01,8.764705882352941124e-01,8.745098039215686292e-01
8.715686274509804043e-01,8.696078431372549211e-01,8.764705882352941124e-01
8.774509803921568540e-01,8.647058823529412130e-01,8.764705882352941124e-01
8.686274509803921795e-01,8.705882352941176627e-01,8.774509803921568540e-01
8.676470588235294379e-01,8.725490196078431460e-01,8.725490196078431460e-01
8.696078431372549211e-01,8.705882352941176627e-01,8.686274509803921795e-01
8.725490196078431460e-01,8.666666666666666963e-01,8.745098039215686292e-01
8.764705882352941124e-01,8.735294117647058876e-01,8.803921568627450789e-01
8.735294117647058876e-01,8.725490196078431460e-01,8.764705882352941124e-01
