8.449999999999999734e-01,8.440277777777778212e-01,8.523611111111111249e-01
8.284722222222222765e-01,8.513888888888888618e-01,8.456944444444445264e-01
8.238888888888888928e-01,8.356944444444445175e-01,8.294444444444444287e-01
8.225000000000000089e-01,8.181944444444444464e-01,8.259722222222222188e-01
8.325000000000000178e-01,8.108333333333332948e-01,8.249999999999999556e-01
8.136111111111110628e-01,8.218055555555555669e-01,8.266666666666666607e-01
8.148611111111110361e-01,8.202777777777777724e-01,8.212500000000000355e-01
8.113888888888889372e-01,8.159722222222222099e-01,8.145833333333333259e-01
8.241666666666667140e-01,8.122222222222221788e-01,8.265277777777777501e-01
8.269444444444444819e-01,8.199999999999999512e-01,8.316666666666666652e-01
8.238888888888888928e-01,8.202777777777777724e-01,8.249999999999999556e-01
