7.840000000000000302e-01,8.579999999999999849e-01,8.429999999999999716e-01
7.890000000000000346e-01,8.539999999999999813e-01,8.559999999999999831e-01
8.100000000000000533e-01,8.559999999999999831e-01,8.469999999999999751e-01
8.050000000000000488e-01,8.659999999999999920e-01,8.489999999999999769e-01
8.179999999999999494e-01,8.589999999999999858e-01,8.599999999999999867e-01
8.120000000000000551e-01,8.559999999999999831e-01,8.499999999999999778e-01
8.110000000000000542e-01,8.539999999999999813e-01,8.229999999999999538e-01
8.120000000000000551e-01,8.609999999999999876e-01,8.419999999999999707e-01
8.080000000000000515e-01,8.539999999999999813e-01,8.519999999999999796e-01
8.090000000000000524e-01,8.559999999999999831e-01,8.509999999999999787e-01
8.179999999999999494e-01,8.609999999999999876e-01,8.539999999999999813e-01
8.090000000000000524e-01,8.599999999999999867e-01,8.519999999999999796e-01
8.010000000000000453e-01,8.599999999999999867e-01,8.469999999999999751e-01
8.189999999999999503e-01,8.559999999999999831e-01,8.389999999999999680e-01
8.169999999999999485e-01,8.579999999999999849e-01,8.589999999999999858e-01
8.159999999999999476e-01,8.639999999999999902e-01,8.559999999999999831e-01
8.209999999999999520e-01,8.569999999999999840e-01,8.609999999999999876e-01
8.209999999999999520e-01,8.549999999999999822e-01,8.489999999999999769e-01
8.229999999999999538e-01,8.729999999999999982e-01,8.559999999999999831e-01
8.229999999999999538e-01,8.629999999999999893e-01,8.619999999999999885e-01
8.179999999999999494e-01,8.639999999999999902e-01,8.629999999999999893e-01
