7.849624060150375282e-01,8.612484286516921550e-01,8.429819508448540555e-01
7.897430750702529867e-01,8.549811400924356430e-01,8.561398034014666703e-01
8.113348697467330783e-01,8.586994685036986041e-01,8.484463458569222460e-01
8.049848797580760884e-01,8.662533889175887403e-01,8.490810706967213406e-01
8.181363226904213581e-01,8.603261481088553264e-01,8.601741567410670086e-01
8.119911502654519886e-01,8.579971729911928247e-01,8.508903952897547418e-01
8.118225612203934238e-01,8.553914179479449320e-01,8.238659173022881976e-01
8.125313283208019932e-01,8.618547765793528326e-01,8.430085247692128414e-01
8.079810873191435316e-01,8.545201646684383867e-01,8.520603972322604580e-01
8.090597798259089313e-01,8.566416040100250928e-01,8.511996284195015861e-01
8.190598245959399559e-01,8.615302069318981903e-01,8.541093779394870467e-01
8.100938740737169130e-01,8.614209627173148309e-01,8.528971459991411264e-01
8.017864311521477605e-01,8.600860086008601524e-01,8.470388155262105201e-01
8.196042097832538786e-01,8.563245326251106571e-01,8.397855675398048225e-01
8.186392914653783937e-01,8.587761913740467046e-01,8.603261481088553264e-01
8.161345210689621155e-01,8.645413695379422503e-01,8.570625484361886759e-01
8.210605478750639952e-01,8.572428971588634816e-01,8.616486967109373563e-01
8.213141025641026438e-01,8.550420168067226490e-01,8.492726573639436394e-01
8.230660860655737432e-01,8.730259684154946243e-01,8.559914239656958301e-01
8.233062243852459217e-01,8.631729722809039496e-01,8.622853461075159487e-01
8.180130362237365560e-01,8.641413717088549662e-01,8.629858077729244403e-01
