7.842784278427843425e-01,8.575257525752575383e-01,8.429942994299429726e-01
7.887288728872887678e-01,8.542654265426542493e-01,8.561056105610560518e-01
8.096609660966096467e-01,8.555655565556555819e-01,8.466746674667466888e-01
8.050105010501049652e-01,8.658665866586658932e-01,8.489148914891488928e-01
8.178817881788178479e-01,8.586958695869586489e-01,8.598859885988598961e-01
8.119611961196119276e-01,8.556255625562556588e-01,8.497449744974496788e-01
8.107310731073107402e-01,8.536853685368537281e-01,8.227322732273227857e-01
8.117811781178116970e-01,8.607560756075607333e-01,8.417241724172417339e-01
8.080008000800080747e-01,8.538053805380538819e-01,8.519251925192519170e-01
8.090709070907091682e-01,8.557855785578558638e-01,8.508750875087508492e-01
8.177017701770177283e-01,8.611961196119611861e-01,8.539053905390538990e-01
8.086908690869086813e-01,8.596859685968596398e-01,8.517451745174517974e-01
8.007300730073007022e-01,8.600860086008601524e-01,8.469346934693469109e-01
8.187718771877188217e-01,8.558455845584558297e-01,8.387538753875387609e-01
8.166316631663166348e-01,8.577657765776578458e-01,8.586958695869586489e-01
8.158815881588158403e-01,8.638063806380638088e-01,8.557255725572556759e-01
8.210721072107209917e-01,8.571357135713570941e-01,8.612161216121612117e-01
8.208320832083207952e-01,8.549354935493549412e-01,8.488548854885489270e-01
8.229122912291229053e-01,8.730573057305730522e-01,8.560256025602559493e-01
8.231523152315232128e-01,8.631163116311630912e-01,8.621462146214621258e-01
8.179417941794179248e-01,8.641064106410640822e-01,8.630163016301630741e-01
