7.629599402298987698e-01,8.639978239651834313e-01,8.649987849890647951e-01
7.826778118070341073e-01,8.599798370965419103e-01,8.479391756702681082e-01
7.946202528475150295e-01,8.658062241877271248e-01,8.649285472014696108e-01
7.989547648220849396e-01,8.719918074756785042e-01,8.619552735086167816e-01
8.258822964323884186e-01,8.699953198315139025e-01,8.679809892624537060e-01
8.289861478779780857e-01,8.699953198315139025e-01,8.609386739552142842e-01
8.229700819438485748e-01,8.719487795118047169e-01,8.719953918341060151e-01
8.357371794871795156e-01,8.699994799979200444e-01,8.709843891110824465e-01
8.369137273617743844e-01,8.649890641141932957e-01,8.679741229280939496e-01
8.287902680783959530e-01,8.699667114781384214e-01,8.789853572282246841e-01
8.189201437834084940e-01,8.709627082226762962e-01,8.699953198315139025e-01
