7.950235876423961123e-01,8.656944850131442770e-01,8.575838571697229629e-01
8.315394187716820262e-01,8.750135043754176944e-01,8.623514018542007831e-01
8.160483996814967833e-01,8.825019306255226237e-01,8.724986895754224259e-01
8.277181806905438144e-01,8.818537206054761768e-01,8.794109291410416862e-01
8.413626014828804456e-01,8.853768621033214492e-01,8.741032094398585306e-01
8.348204818361149027e-01,8.780684941921181874e-01,8.862511453711001685e-01
8.593684353730608461e-01,8.759237993109767473e-01,8.869813819677575539e-01
8.409304614695161106e-01,8.767620709109751331e-01,8.739591627687370856e-01
8.367851183783545643e-01,8.777083775143146305e-01,8.807633673310152345e-01
8.426070046695128823e-01,8.761038576498785257e-01,8.800691424021382936e-01
8.430391446828772173e-01,8.759598109787571918e-01,8.650102633253173856e-01
8.444536029673614941e-01,8.747614227009551380e-01,8.810154490054777909e-01
8.456519912451634369e-01,8.850167454255177812e-01,8.813035423477206809e-01
8.432292062628291562e-01,8.760678459820981923e-01,8.788707541243362398e-01
8.366310684661830699e-01,8.727247628231546983e-01,8.779964708565575204e-01
8.421288497473181645e-01,8.808714023343563460e-01,8.789427774598970178e-01
8.447516995506543225e-01,8.822138372832797337e-01,8.670109115353374918e-01
8.429671213473165503e-01,8.790868241310184628e-01,8.870173936355378874e-01
8.396600498561533898e-01,8.781045058598986319e-01,8.790868241310184628e-01
8.343063152461397403e-01,8.850167454255177812e-01,8.900363717844581579e-01
8.421288497473181645e-01,8.849087104221767808e-01,8.848366870866160028e-01
