8.291428219531185029e-01,8.371748798050488993e-01,8.317468626148615263e-01
8.225557427454154302e-01,8.430361706526376953e-01,8.292857802664743705e-01
8.147392220428522069e-01,8.243636155696998369e-01,8.199495027250054413e-01
8.030870198250190661e-01,8.257382147365828207e-01,8.075737115057248783e-01
7.994690748177831763e-01,8.179964722286980905e-01,8.079366056857819611e-01
8.012065681647231319e-01,8.236400265682526367e-01,8.154628110442994071e-01
8.042460818425347657e-01,8.168374102111823909e-01,8.109035405275821784e-01
7.935352051341828528e-01,8.068501225042776781e-01,8.023634308235718660e-01
8.012065681647231319e-01,8.228438587307941310e-01,8.047519343359476052e-01
7.928116161327356526e-01,7.966450982893388266e-01,7.979493179788773594e-01
7.979493179788773594e-01,8.212515230558768975e-01,8.053303656653719722e-01
8.024360096595832825e-01,8.158960847017009410e-01,8.022908519875604494e-01
7.930997321181143533e-01,8.097444785100664788e-01,7.930271532821029368e-01
7.949823831370772531e-01,8.090934683446306952e-01,8.001926638192302654e-01
7.902779549483370802e-01,8.075011326697134617e-01,7.917251329512313696e-01
7.954882356304902036e-01,8.190807560515354080e-01,7.925213007886899863e-01
8.007710951486546325e-01,8.082973005071720785e-01,7.983825916362787822e-01
7.991787594737373990e-01,8.076462903417362948e-01,8.006985163126432159e-01
8.023634308235718660e-01,8.153176533722765740e-01,8.114819718570065454e-01
8.018575783301589155e-01,8.045341978279134665e-01,8.016398418221246658e-01
8.092386260166535283e-01,8.130017286959122513e-01,8.151724957002537408e-01
