8.040000000000000480e-01,8.619999999999999885e-01,8.539999999999999813e-01
7.980000000000000426e-01,8.479999999999999760e-01,8.489999999999999769e-01
8.030000000000000471e-01,8.649999999999999911e-01,8.679999999999999938e-01
7.950000000000000400e-01,8.609999999999999876e-01,8.609999999999999876e-01
8.090000000000000524e-01,8.609999999999999876e-01,8.479999999999999760e-01
8.199999999999999512e-01,8.609999999999999876e-01,8.609999999999999876e-01
8.239999999999999547e-01,8.609999999999999876e-01,8.589999999999999858e-01
8.179999999999999494e-01,8.649999999999999911e-01,8.649999999999999911e-01
8.349999999999999645e-01,8.669999999999999929e-01,8.699999999999999956e-01
8.299999999999999600e-01,8.669999999999999929e-01,8.639999999999999902e-01
8.249999999999999556e-01,8.659999999999999920e-01,8.719999999999999973e-01
8.339999999999999636e-01,8.649999999999999911e-01,8.719999999999999973e-01
8.329999999999999627e-01,8.659999999999999920e-01,8.699999999999999956e-01
8.189999999999999503e-01,8.609999999999999876e-01,8.649999999999999911e-01
8.329999999999999627e-01,8.689999999999999947e-01,8.649999999999999911e-01
8.319999999999999618e-01,8.619999999999999885e-01,8.659999999999999920e-01
8.259999999999999565e-01,8.750000000000000000e-01,8.699999999999999956e-01
8.279999999999999583e-01,8.659999999999999920e-01,8.739999999999999991e-01
8.199999999999999512e-01,8.649999999999999911e-01,8.649999999999999911e-01
8.359999999999999654e-01,8.659999999999999920e-01,8.679999999999999938e-01
8.269999999999999574e-01,8.679999999999999938e-01,8.659999999999999920e-01
