8.175915987119306561e-01,8.859521940434802456e-01,8.687939569682308072e-01
8.217690126403819351e-01,8.954044441596309412e-01,8.875382495714445596e-01
8.403250612794180840e-01,8.968302920585078386e-01,8.687218635351415807e-01
8.403250612794180840e-01,8.971907592239543039e-01,8.833167785449943521e-01
8.432488505102613274e-01,8.964698248930613733e-01,8.788349701212772036e-01
8.485517230330508198e-01,8.951441067623640002e-01,8.840216921129784300e-01
8.456119130392989458e-01,8.908225059677341573e-01,8.942509492302023189e-01
8.489402265335874720e-01,8.902457585030199017e-01,8.755787500600777928e-01
8.550481423925406776e-01,8.936461654303977653e-01,8.847706627789615474e-01
8.488400967654079476e-01,8.899573847706627738e-01,8.805211554174210420e-01
8.415626652141174890e-01,8.964698248930613733e-01,8.826238805491917194e-01
