7.999487868894437081e-01,8.589998589998590894e-01,8.559792610135860125e-01
7.923719250733469721e-01,8.659351125944956262e-01,8.668368751720857412e-01
8.179883512544803281e-01,8.669413211226150162e-01,8.649933846758490752e-01
8.189780963496582356e-01,8.649998649998650313e-01,8.659865986598659360e-01
8.219423093082158793e-01,8.639912954429083136e-01,8.629932866710467998e-01
8.258634769659413122e-01,8.629998629998629767e-01,8.629603955543152516e-01
8.320000000000000728e-01,8.569105691056910779e-01,8.659951758263296773e-01
8.149020832020138494e-01,8.719953918341059040e-01,8.729937766950579547e-01
8.379474949883762847e-01,8.619950318211455631e-01,8.739999999999999991e-01
8.309714341723750675e-01,8.589998589998588674e-01,8.659994639978558784e-01
8.239823982398239988e-01,8.659951758263297883e-01,8.689778572578765736e-01
8.229856618386088840e-01,8.639216188524589946e-01,8.619977919646715225e-01
8.359678496985409879e-01,8.659565699286568830e-01,8.689526919217838152e-01
8.269984429859869035e-01,8.719979519672313995e-01,8.719953918341059040e-01
8.168664956753473039e-01,8.679867986798679436e-01,8.679809892624538170e-01
8.297275641025640969e-01,8.679239241803278215e-01,8.719262295081967595e-01
8.269499885466899958e-01,8.669998669998670859e-01,8.709998709998709732e-01
8.269915225846066198e-01,8.679661993470328962e-01,8.699479791916766569e-01
8.299564688560271408e-01,8.729846311403680614e-01,8.729439682900159703e-01
8.279008709016393297e-01,8.729439682900159703e-01,8.729632863897666128e-01
8.367255356253863186e-01,8.689705183666325272e-01,8.779760833123292363e-01
