8.243753477368964688e-01,8.602002115089764089e-01,8.502023775647586934e-01
8.292086251491816995e-01,8.279535869459038189e-01,8.305379887959702945e-01
8.357067924961032457e-01,8.447022947449787100e-01,8.482019613422751014e-01
8.233772632097549060e-01,8.321200589506946299e-01,8.292043779809812332e-01
8.313704337632883412e-01,8.298711833884757638e-01,8.370361561428917296e-01
8.225405710742362819e-01,8.392850317051105957e-01,8.255390718238614367e-01
8.239570016691371013e-01,8.468683505272859291e-01,8.338720158334430588e-01
8.293742647090052156e-01,8.397033777728699633e-01,8.393720986532229311e-01
8.211241404793354626e-01,8.287032121333101076e-01,8.247894466364551480e-01
8.333750971539726216e-01,8.280364067258154659e-01,8.350399870886087150e-01
8.319586665590716912e-01,8.317845326628470204e-01,8.386224734658167534e-01
8.190409044769400015e-01,8.415381544355300392e-01,8.326212247983657555e-01
8.335407367137961376e-01,8.256218916037731947e-01,8.396205579929582052e-01
8.270383221986740141e-01,8.377029615503863713e-01,8.362865309554854409e-01
8.371232230910041761e-01,8.452034605926499466e-01,8.407885292481238615e-01
8.315403204913124346e-01,8.375373219905628552e-01,8.317059600511358397e-01
8.337891960535313007e-01,8.405358227401880100e-01,8.361208913956619249e-01
8.267898628589388510e-01,8.369533363629799716e-01,8.304551690160585364e-01
8.293742647090052156e-01,8.358681848877260734e-01,8.287074593015106849e-01
8.243753477368964688e-01,8.473695163749570547e-01,8.373716824307393392e-01
8.360380716157502778e-01,8.437042102178372582e-01,8.459530857800561243e-01
