8.480392156862744946e-01,8.578431372549019107e-01,8.578431372549019107e-01
8.578431372549019107e-01,8.588235294117646523e-01,8.549019607843136859e-01
8.490196078431372362e-01,8.666666666666666963e-01,8.696078431372549211e-01
8.470588235294117530e-01,8.764705882352941124e-01,8.627450980392157298e-01
8.558823529411764275e-01,8.794117647058823373e-01,8.637254901960784714e-01
8.588235294117646523e-01,8.725490196078431460e-01,8.607843137254902466e-01
8.637254901960784714e-01,8.715686274509804043e-01,8.725490196078431460e-01
8.598039215686275050e-01,8.686274509803921795e-01,8.656862745098039547e-01
8.578431372549019107e-01,8.745098039215686292e-01,8.676470588235294379e-01
8.607843137254902466e-01,8.725490196078431460e-01,8.647058823529412130e-01
8.607843137254902466e-01,8.715686274509804043e-01,8.705882352941176627e-01
