8.234887186036611295e-01,8.356582271676611384e-01,8.359734608745684747e-01
8.366471099521947119e-01,8.413793103448276023e-01,8.366101694915254461e-01
8.278166728806771735e-01,8.489443086568071450e-01,8.527043479864967468e-01
8.299523903131307279e-01,8.571722438612103812e-01,8.446994025478354873e-01
8.371088884344382031e-01,8.616093177676331649e-01,8.461111111111110361e-01
8.440386680988184454e-01,8.559868539155170986e-01,8.453367667176310274e-01
8.418774137286657577e-01,8.524070298262391709e-01,8.541716742479558144e-01
8.397052385816430320e-01,8.503867221585172942e-01,8.475448397530138678e-01
8.377684407096170904e-01,8.598991296086732072e-01,8.503523400173402802e-01
8.437638807714786804e-01,8.575240649929447567e-01,8.475315313643723147e-01
8.437638807714786804e-01,8.560718734313708111e-01,8.556867329047340709e-01
