8.372366055061888357e-01,8.497843962221329761e-01,8.467511042055829718e-01
8.234493112899565759e-01,8.346572161798850864e-01,8.301269181753112569e-01
8.336708507183883121e-01,8.398378170772158313e-01,8.408023602939892482e-01
8.327848675826190483e-01,8.445645152843002101e-01,8.452540982175590356e-01
8.326277474206106310e-01,8.459436811508178611e-01,8.451755381365548825e-01
8.347750563013913716e-01,8.452540982175590356e-01,8.399556571987221165e-01
8.522852254674324612e-01,8.330423700703548651e-01,8.384193711701960483e-01
8.362327822489132867e-01,8.512421221696548912e-01,8.391482341439570058e-01
8.348143363418933927e-01,8.368438051011679590e-01,8.354646392346503081e-01
8.128917092927847587e-01,8.489769731673679765e-01,8.406059600914788099e-01
8.331994902323631713e-01,8.519709851434158487e-01,8.504739791553919126e-01
8.376905081964350908e-01,8.438356523105392526e-01,8.459436811508178611e-01
8.384586512106981804e-01,8.475192472198460614e-01,8.399556571987221165e-01
8.401127773607304228e-01,8.579590090955115933e-01,8.497843962221329761e-01
8.370402053036783974e-01,8.555760199717183934e-01,8.429889492152720099e-01
8.309343412300762566e-01,8.497843962221329761e-01,8.376905081964350908e-01
8.399556571987221165e-01,8.496665561006266909e-01,8.465939840435746655e-01
8.503954190743876485e-01,8.481695501126027548e-01,8.503168589933834953e-01
8.429103891342679677e-01,8.526605680766745632e-01,8.503168589933834953e-01
8.429103891342679677e-01,8.465939840435746655e-01,8.496272760601246699e-01
8.429889492152720099e-01,8.466332640840767976e-01,8.429496691747699888e-01
