7.879137059087126804e-01,8.868590359131938161e-01,8.739357275462518171e-01
8.142724537481595970e-01,8.849545483643812549e-01,8.820338006529671038e-01
8.113757121823186313e-01,8.798412393572754286e-01,8.719992318033416012e-01
8.224585493886434895e-01,8.740957685167403124e-01,8.691104922860252158e-01
8.220824531079956587e-01,8.857467511682990402e-01,8.910201011458933618e-01
8.168171051789258064e-01,8.810815568785609342e-01,8.802253376864477286e-01
8.388467447666603238e-01,8.912121503104795117e-01,8.930206132769988869e-01
8.305006081556878250e-01,8.778727354202675581e-01,8.810175404903655139e-01
8.113837142308431005e-01,8.873711670187567346e-01,8.804814032392291878e-01
8.269396965623199147e-01,8.882914025990653606e-01,8.787609628064784184e-01
8.393268676781255877e-01,8.771125408104474275e-01,8.799052557454708490e-01
8.344696242238012207e-01,8.869870686895845457e-01,8.829540362332757297e-01
8.351417962998527456e-01,8.880673452403815560e-01,8.841943537545611242e-01
8.371022981883362579e-01,8.828260034568848891e-01,8.747279303501696024e-01
8.305326163497854797e-01,8.859067921387875355e-01,8.769524998399590432e-01
8.403431278407271776e-01,8.807294667434862889e-01,8.816817105178925695e-01
8.344056078356059114e-01,8.836182062608027854e-01,8.786649382241853434e-01
8.328772165674411809e-01,8.878432878816977514e-01,8.780007681966583988e-01
8.295083541386595316e-01,8.853706548876512095e-01,8.860348249151782651e-01
8.313248191537033760e-01,8.818417514883809538e-01,8.820017924588694491e-01
8.289162025478522544e-01,8.865789642148389493e-01,8.855306958581397048e-01
