7.978268463975521918e-01,8.739273927392738894e-01,8.799708603015639063e-01
7.638874995498541320e-01,8.789620633930143034e-01,8.779476061138200560e-01
7.701370137013701100e-01,8.779277927792779046e-01,8.569227691076430897e-01
7.836424498686656026e-01,8.863114349964524852e-01,8.450707047231316160e-01
8.083912613705033223e-01,8.823029530486509175e-01,8.729291716686674585e-01
8.155553954300170938e-01,8.783493458214648442e-01,8.651442307692307487e-01
8.218130697383809746e-01,8.865331306088555241e-01,8.619794479177915747e-01
8.359460940593861356e-01,8.833170989814447260e-01,8.736009031080367304e-01
8.323752061009904724e-01,8.803212240766008501e-01,8.733693477390955806e-01
8.421463954215360204e-01,8.789245955381641551e-01,8.630498087969407095e-01
8.295549823284698032e-01,8.794825819672131839e-01,8.678727631009788279e-01
