8.384956061304609243e-01,8.627505300353357498e-01,8.482961200245403566e-01
8.395857490927698397e-01,8.484272306786841966e-01,8.524525907122592061e-01
8.351275337018717604e-01,8.472698233121486178e-01,8.347682615869206346e-01
8.445872466633712605e-01,8.599822966122153689e-01,8.484272306786841966e-01
8.389263643177350405e-01,8.565275138814587574e-01,8.388793396978139194e-01
8.361832782239017048e-01,8.498995209734516720e-01,8.327240921990197720e-01
8.395857490927698397e-01,8.465440424758130522e-01,8.444531923269249507e-01
8.399111710800022390e-01,8.493740591833234266e-01,8.420416139133888311e-01
8.313774825274852232e-01,8.400126438144088770e-01,8.454977066065822999e-01
8.263900542261387594e-01,8.445597720113994233e-01,8.280835408048772273e-01
8.344592051783832343e-01,8.438748540168417023e-01,8.420857072083229866e-01
8.344058271831793494e-01,8.417655681972602277e-01,8.403494403494404796e-01
8.344608962140660502e-01,8.341549122689821960e-01,8.294993331737920972e-01
8.375217855737335793e-01,8.489606717281623638e-01,8.423695762192999759e-01
8.371915065419157642e-01,8.552955701122391119e-01,8.388793396978139194e-01
8.361832782239017048e-01,8.469446085249898726e-01,8.327432907975778065e-01
8.309116069884103783e-01,8.495892902855916029e-01,8.410404108537921086e-01
8.379155282331510746e-01,8.449491737311065620e-01,8.386161067454247497e-01
8.358413132694937353e-01,8.484406945604283656e-01,8.423005565862708988e-01
8.460402579334667106e-01,8.480655019316152288e-01,8.420857072083229866e-01
8.337598189845001340e-01,8.448977539269459935e-01,8.351483807178746721e-01
