8.010000000000000453e-01,8.599999999999999867e-01,8.449999999999999734e-01
8.030000000000000471e-01,8.569999999999999840e-01,8.409999999999999698e-01
8.030000000000000471e-01,8.569999999999999840e-01,8.209999999999999520e-01
8.129999999999999449e-01,8.659999999999999920e-01,8.509999999999999787e-01
8.090000000000000524e-01,8.479999999999999760e-01,8.449999999999999734e-01
8.080000000000000515e-01,8.499999999999999778e-01,8.339999999999999636e-01
8.080000000000000515e-01,8.429999999999999716e-01,8.169999999999999485e-01
8.229999999999999538e-01,8.669999999999999929e-01,8.439999999999999725e-01
8.169999999999999485e-01,8.599999999999999867e-01,8.549999999999999822e-01
8.219999999999999529e-01,8.569999999999999840e-01,8.519999999999999796e-01
8.129999999999999449e-01,8.629999999999999893e-01,8.489999999999999769e-01
8.199999999999999512e-01,8.609999999999999876e-01,8.399999999999999689e-01
8.249999999999999556e-01,8.649999999999999911e-01,8.439999999999999725e-01
8.219999999999999529e-01,8.719999999999999973e-01,8.469999999999999751e-01
8.309999999999999609e-01,8.629999999999999893e-01,8.529999999999999805e-01
8.179999999999999494e-01,8.649999999999999911e-01,8.469999999999999751e-01
8.179999999999999494e-01,8.619999999999999885e-01,8.429999999999999716e-01
8.159999999999999476e-01,8.649999999999999911e-01,8.389999999999999680e-01
8.249999999999999556e-01,8.589999999999999858e-01,8.549999999999999822e-01
8.189999999999999503e-01,8.669999999999999929e-01,8.479999999999999760e-01
8.279999999999999583e-01,8.649999999999999911e-01,8.529999999999999805e-01
