8.007271955306816125e-01,8.598901538806423828e-01,8.449179616016871952e-01
8.027583790142924780e-01,8.569483583573670460e-01,8.408266602329936834e-01
8.020575962155823690e-01,8.569929926566401956e-01,8.204165333167461327e-01
8.129683916581903480e-01,8.658792913622259668e-01,8.509068167604753041e-01
8.088162724378127333e-01,8.479781088476741058e-01,8.448310209818492567e-01
8.075566104304316983e-01,8.497830867773064067e-01,8.337339743589744501e-01
8.075566104304316983e-01,8.424515739288462868e-01,8.166918590150040735e-01
8.228893058161350638e-01,8.668368751720858523e-01,8.438776000384302645e-01
8.168239678330877496e-01,8.597284342487054865e-01,8.549360267878134412e-01
8.219821982198219912e-01,8.568039646275751320e-01,8.519283333133236269e-01
8.127961349910052258e-01,8.627462177566320722e-01,8.487457415916155323e-01
8.198378540686617200e-01,8.605782492038416276e-01,8.398558702832549239e-01
8.247853620685340337e-01,8.649285472014696108e-01,8.439100922131146376e-01
8.219651051606113867e-01,8.718846962266039169e-01,8.468883816302084089e-01
8.305239417523824219e-01,8.623822338477425964e-01,8.525539757767246485e-01
8.179934477641195301e-01,8.647499226069000899e-01,8.469447470536863865e-01
8.179817981798180870e-01,8.617561378271270112e-01,8.428854635028935061e-01
8.156098304011287770e-01,8.647726828799211507e-01,8.387017595534143055e-01
8.249606161386311420e-01,8.584733794449144195e-01,8.547057792028858181e-01
8.189694058295852175e-01,8.667055525656173209e-01,8.478807384989831553e-01
8.278236914600550778e-01,8.649933846758490752e-01,8.528762689421803822e-01
