7.773237179487180182e-01,8.510865564641307834e-01,8.449980798771121737e-01
8.008380190962397505e-01,8.508611109996750965e-01,8.281521110468479385e-01
8.014286231403163763e-01,8.662164393381094341e-01,8.603030303030303472e-01
8.221313570150778904e-01,8.667669172932330746e-01,8.544228642071702851e-01
8.131661517570537567e-01,8.695835136824893175e-01,8.634615384615385025e-01
8.088650219337852887e-01,8.703248505880085695e-01,8.681453231633882162e-01
8.205203442879499542e-01,8.698544480482806041e-01,8.727492690795443098e-01
8.305313172848101111e-01,8.705092347012586274e-01,8.585662525879917961e-01
8.245860422694932801e-01,8.713218614297750797e-01,8.700171845508071211e-01
8.153846153846153744e-01,8.700171845508071211e-01,8.765267921547766905e-01
8.139933037589353049e-01,8.761157186808614661e-01,8.599954399817599793e-01
