8.429657911752932442e-01,8.503267224578699990e-01,8.568430696887936460e-01
8.520041526118600217e-01,8.568047811961011506e-01,8.585987773847481019e-01
8.550475841832471113e-01,8.606920698774536138e-01,8.663995416809511241e-01
8.619656808790892022e-01,8.622558582113688530e-01,8.642662528644375897e-01
8.629946802927024319e-01,8.619656808790892022e-01,8.648151147893441415e-01
8.609722853248522600e-01,8.688673968351348087e-01,8.601934093120569003e-01
8.571112245866302493e-01,8.547821105227730865e-01,8.504091068771110207e-01
8.606920698774536138e-01,8.594158822545878706e-01,8.514816282164590078e-01
8.611821896591866921e-01,8.609722853248522600e-01,8.645708858044549583e-01
8.554899645808736741e-01,8.576097105508868612e-01,8.477010438106438173e-01
8.586396460244793971e-01,8.625042620507005209e-01,8.645708858044549583e-01
