8.388850028891563504e-01,8.622354550575359600e-01,8.597348978704910660e-01
8.555429350295320479e-01,8.568047811961012616e-01,8.598435726112962918e-01
8.631829928052203726e-01,8.657796451914099300e-01,8.756439450500224098e-01
8.666962095289436618e-01,8.697222222222222854e-01,8.690261362961473335e-01
8.681139122315593148e-01,8.666962095289436618e-01,8.715204117397479244e-01
8.688230300725023891e-01,8.736859898305548988e-01,8.668163958014352133e-01
8.625243608850166055e-01,8.637449604300433403e-01,8.584422465559873316e-01
8.657796451914099300e-01,8.648630058466124648e-01,8.564425770308123909e-01
8.648114493412085713e-01,8.688230300725023891e-01,8.720833333333333215e-01
8.699479485609307172e-01,8.688359990383662801e-01,8.604417909312596091e-01
8.629614767255215924e-01,8.691684037705915689e-01,8.720833333333333215e-01
