7.646420205132006265e-01,8.669998669998669749e-01,8.599641508226105735e-01
7.807313959600510334e-01,8.657632062959059738e-01,8.559994239976959074e-01
7.789732557639474919e-01,8.658792913622259668e-01,8.489333796204125981e-01
7.837785892754179917e-01,8.659978559656954511e-01,8.519520324585165838e-01
7.849739818518040035e-01,8.689935806854536260e-01,8.619977919646715225e-01
7.939868151561699783e-01,8.679978879662074709e-01,8.309795485253714808e-01
7.907989577984443352e-01,8.759399549381901018e-01,8.499903993855607576e-01
7.929401597061550566e-01,8.708231569017985674e-01,8.587625798968064883e-01
7.977929399705298019e-01,8.689967249181229647e-01,8.669775192007449505e-01
7.935631796882203215e-01,8.679867986798679436e-01,8.478240846418459986e-01
7.948914976022315448e-01,8.609931886662447464e-01,8.569998569998570348e-01
7.869827456023938961e-01,8.707610371577046982e-01,8.589490806181030447e-01
7.989997989997990047e-01,8.629834209939402090e-01,8.579795490550639059e-01
8.049139670594731566e-01,8.679471788715485969e-01,8.649890641141932957e-01
7.949833936548860169e-01,8.649890641141932957e-01,8.639863986398640394e-01
8.019928717433827403e-01,8.667973988436412647e-01,8.539713783901643485e-01
7.878565910555535012e-01,8.629603955543152516e-01,8.549963749093727472e-01
7.889997889997890645e-01,8.629987669889027657e-01,8.429734625151650285e-01
8.059968959503351904e-01,8.699120605529337968e-01,8.399993599974400205e-01
7.967786919955831548e-01,8.619066488946527382e-01,8.629691680628142070e-01
7.968047293449004309e-01,8.629274886414912693e-01,8.538854461898128800e-01
