8.060769079898011391e-01,8.781441162467843453e-01,8.589916948040517974e-01
8.130252100840336116e-01,8.724479969183358552e-01,8.579857985798580167e-01
8.165413533834586790e-01,8.749859997759963370e-01,8.552037286181048970e-01
8.167756332301863154e-01,8.733974358974359031e-01,8.439381774387796353e-01
8.053018328366132739e-01,8.640013442634756347e-01,8.632523271370088347e-01
7.960332801075720166e-01,8.725583334335453856e-01,8.656023478093527457e-01
8.143836282325491727e-01,8.760036967245580231e-01,8.593427502579980004e-01
8.100104433836563533e-01,8.669928469699637041e-01,8.419841984198419560e-01
8.120809667335118220e-01,8.705540924596446573e-01,8.443975172203767032e-01
8.179817981798179760e-01,8.810995133196721785e-01,8.724469965018293305e-01
8.192276910764305642e-01,8.757200948830905496e-01,8.603303169777158921e-01
8.099809980998100567e-01,8.750500200080031377e-01,8.521669502552297049e-01
8.289810547875064994e-01,8.786967418546365316e-01,8.399822393606170001e-01
8.340958487937846222e-01,8.802131890732597386e-01,8.691494131399016831e-01
8.179912719650879183e-01,8.714992224947498700e-01,8.646616541353383534e-01
8.270308123249299204e-01,8.681813632269042014e-01,8.772262797104235510e-01
8.312732388704653363e-01,8.789849052211640146e-01,8.579887595343236306e-01
8.119912479649918913e-01,8.742911569199491861e-01,8.489855837693403018e-01
8.250300120048019714e-01,8.809028508523417678e-01,8.451934781215966197e-01
8.104293864478029352e-01,8.709742351046698694e-01,8.651462746793485703e-01
8.234061142371631448e-01,8.755069815162153102e-01,8.575881527243183200e-01
