7.950000000000000400e-01,8.699999999999999956e-01,8.619999999999999885e-01
8.199999999999999512e-01,8.780000000000000027e-01,8.589999999999999858e-01
8.199999999999999512e-01,8.659999999999999920e-01,8.509999999999999787e-01
8.259999999999999565e-01,8.709999999999999964e-01,8.499999999999999778e-01
8.219999999999999529e-01,8.699999999999999956e-01,8.429999999999999716e-01
8.279999999999999583e-01,8.709999999999999964e-01,8.559999999999999831e-01
8.269999999999999574e-01,8.790000000000000036e-01,8.549999999999999822e-01
8.299999999999999600e-01,8.729999999999999982e-01,8.579999999999999849e-01
8.309999999999999609e-01,8.659999999999999920e-01,8.449999999999999734e-01
8.249999999999999556e-01,8.719999999999999973e-01,8.549999999999999822e-01
8.319999999999999618e-01,8.739999999999999991e-01,8.629999999999999893e-01
8.299999999999999600e-01,8.729999999999999982e-01,8.519999999999999796e-01
8.289999999999999591e-01,8.689999999999999947e-01,8.529999999999999805e-01
8.369999999999999662e-01,8.820000000000000062e-01,8.619999999999999885e-01
8.239999999999999547e-01,8.709999999999999964e-01,8.359999999999999654e-01
8.239999999999999547e-01,8.729999999999999982e-01,8.549999999999999822e-01
8.199999999999999512e-01,8.760000000000000009e-01,8.639999999999999902e-01
8.169999999999999485e-01,8.729999999999999982e-01,8.639999999999999902e-01
8.269999999999999574e-01,8.729999999999999982e-01,8.569999999999999840e-01
8.289999999999999591e-01,8.739999999999999991e-01,8.649999999999999911e-01
8.329999999999999627e-01,8.729999999999999982e-01,8.479999999999999760e-01
