8.960784313725490557e-01,8.931372549019608309e-01,8.960784313725490557e-01
8.892156862745097534e-01,8.892156862745097534e-01,8.892156862745097534e-01
9.000000000000000222e-01,8.980392156862745390e-01,8.960784313725490557e-01
8.921568627450980893e-01,9.000000000000000222e-01,8.980392156862745390e-01
8.990196078431372806e-01,8.980392156862745390e-01,8.970588235294117974e-01
8.950980392156863141e-01,8.980392156862745390e-01,8.931372549019608309e-01
8.990196078431372806e-01,8.990196078431372806e-01,8.980392156862745390e-01
8.941176470588235725e-01,9.088235294117646967e-01,9.009803921568627638e-01
9.039215686274509887e-01,9.098039215686274384e-01,9.088235294117646967e-01
9.009803921568627638e-01,9.000000000000000222e-01,9.049019607843137303e-01
9.000000000000000222e-01,9.000000000000000222e-01,9.058823529411764719e-01
8.941176470588235725e-01,8.990196078431372806e-01,8.970588235294117974e-01
8.960784313725490557e-01,9.019607843137255054e-01,9.029411764705882470e-01
8.990196078431372806e-01,9.088235294117646967e-01,9.058823529411764719e-01
8.950980392156863141e-01,8.950980392156863141e-01,8.960784313725490557e-01
9.009803921568627638e-01,9.019607843137255054e-01,9.049019607843137303e-01
8.990196078431372806e-01,9.009803921568627638e-01,9.019607843137255054e-01
9.039215686274509887e-01,9.029411764705882470e-01,9.058823529411764719e-01
9.068627450980392135e-01,9.039215686274509887e-01,9.019607843137255054e-01
9.000000000000000222e-01,9.009803921568627638e-01,8.990196078431372806e-01
8.960784313725490557e-01,9.009803921568627638e-01,8.980392156862745390e-01
