7.817496180359957414e-01,8.634333418602480048e-01,8.476948184414524468e-01
7.847727893780842567e-01,8.727392385316627976e-01,8.497786211258697708e-01
8.054119774674046717e-01,8.719524968175446089e-01,8.773803396809058963e-01
8.079631852741095965e-01,8.746850978618951888e-01,8.622596153846153744e-01
8.220738035748607064e-01,8.726431609914720999e-01,8.691547428827723909e-01
8.296132967392754187e-01,8.818035426731078985e-01,8.612382146520981552e-01
8.346013097072418896e-01,8.748645894997966188e-01,8.779568661936483220e-01
8.325950179763739190e-01,8.802047453499735052e-01,8.740692703079213643e-01
8.228289866371067962e-01,8.766676459580085012e-01,8.630952380952381375e-01
8.179497847690067047e-01,8.833854219175319988e-01,8.675147652842820634e-01
8.279969262295081567e-01,8.724741805118993998e-01,8.691547428827723909e-01
