8.239406740578132382e-01,8.328229629766275011e-01,8.241113099300854117e-01
8.263710822926082500e-01,8.335193418067110560e-01,8.248860890258075118e-01
8.078962902839011972e-01,8.262788466859746217e-01,8.268045896437861142e-01
8.099854267741518621e-01,8.196563301296833082e-01,8.104189341253298373e-01
8.135595565312032651e-01,8.268045896437861142e-01,8.182635724695161983e-01
8.290781973473040356e-01,8.294194690918481605e-01,8.230598240144625377e-01
8.146110424468261391e-01,8.147678429781033405e-01,8.175671936394326433e-01
8.245448172812632759e-01,8.199192016085889989e-01,8.179223007249718513e-01
7.957673080115847952e-01,8.277638399527753599e-01,8.294978693574868167e-01
8.123374347433083287e-01,8.331642347211717370e-01,8.268045896437861142e-01
8.239268387168181551e-01,8.342941209024331561e-01,8.262788466859746217e-01
8.122451991366748114e-01,8.305493552731095797e-01,8.304571196664760624e-01
8.228891881421904753e-01,8.350827353391503394e-01,8.299452120496596530e-01
8.194856942574111347e-01,8.346492279879724752e-01,8.262788466859746217e-01
8.179223007249718513e-01,8.293272334852146432e-01,8.279344758250475333e-01
8.174749580327989040e-01,8.309828626242874439e-01,8.257531037281631292e-01
8.154780571491818675e-01,8.376976147872124967e-01,8.270674611226918049e-01
8.261082108137025592e-01,8.291565976129424698e-01,8.272380969949639784e-01
8.186048442140603232e-01,8.309828626242874439e-01,8.184342083417882607e-01
8.185264439484218890e-01,8.381311221383902499e-01,8.359497500415060678e-01
8.234933313656404019e-01,8.409166374587245807e-01,8.305493552731095797e-01
