8.506984683551408466e-01,8.524066140779360534e-01,8.531775812868992448e-01
8.505494505494506363e-01,8.496958286963520735e-01,8.551887399835575998e-01
8.455879362468423643e-01,8.550538149357007622e-01,8.527633929376950972e-01
8.452032520325203357e-01,8.412698412698411676e-01,8.440386695806426642e-01
8.359857394883856152e-01,8.411321522648387283e-01,8.393481032522409624e-01
8.506807202459376605e-01,8.422895389975478819e-01,8.402516830503766743e-01
8.393481032522409624e-01,8.427203751490937034e-01,8.295985060690942436e-01
8.402513072959565399e-01,8.333264288771973227e-01,8.392350530629399952e-01
8.404074394895215683e-01,8.460506650597651168e-01,8.348807091784620216e-01
8.460506650597651168e-01,8.361942206696879598e-01,8.412698412698411676e-01
8.379527649548911272e-01,8.419927502555999421e-01,8.478116518278661085e-01
